{
  "page":1,
  "total_results":19472,
  "total_pages":974,
  "results":[
    {
      "vote_count":4261,
      "id":211672,
      "video":false,
      "vote_average":6.4,
      "title":"Minions",
      "popularity":300.288453,
      "poster_path":"/q0R4crx2SehcEEQEkYObktdeFy.jpg",
      "original_language":"en",
      "original_title":"Minions",
      "genre_ids":[
        10751,
        16,
        12,
        35
      ],
      "backdrop_path":"/uX7LXnsC7bZJZjn048UCOwkPXWJ.jpg",
      "adult":false,
      "overview":"Minions Stuart, Kevin and Bob are recruited by Scarlet Overkill, a super-villain who, alongside her inventor husband Herb, hatches a plot to take over the world.",
      "release_date":"2015-06-17"
    },
    {
      "vote_count":4922,
      "id":321612,
      "video":false,
      "vote_average":6.8,
      "title":"Beauty and the Beast",
      "popularity":150.620218,
      "poster_path":"/tWqifoYuwLETmmasnGHO7xBjEtt.jpg",
      "original_language":"en",
      "original_title":"Beauty and the Beast",
      "genre_ids":[
        10751,
        14,
        10749
      ],
      "backdrop_path":"/6aUWe0GSl69wMTSWWexsorMIvwU.jpg",
      "adult":false,
      "overview":"A live-action adaptation of Disney's version of the classic 'Beauty and the Beast' tale of a cursed prince and a beautiful young woman who helps him break the spell.",
      "release_date":"2017-03-16"
    }
  ]
}